<?xml version="1.0" encoding="UTF-8"?>
<session version="1.0">
<refactoring accessors="true" comment="Delete element from project &apos;Assignment 4&apos;&#x0D;&#x0A;- Original project: &apos;Assignment 4&apos;&#x0D;&#x0A;- Original element: &apos;Assignment 4/src/Que1&apos;" description="Delete element" element1="/src&lt;Que1" elements="1" flags="589830" id="org.eclipse.jdt.ui.delete" resources="0" stamp="1632743275669" subPackages="false" version="1.0"/>
</session>